<svg width="140px" height="32px" viewBox="0 0 140 32" fill="none" xmlns="http://www.w3.org/2000/svg">
    <path
        d="M31.9357 16C31.9357 19.1645 30.9992 22.2579 29.2446 24.8891C27.49 27.5203 24.9962 29.5711 22.0785 30.7821C19.1607 31.9931 15.9501 32.3099 12.8527 31.6926C9.75521 31.0752 6.91002 29.5513 4.67688 27.3137C2.44373 25.0761 0.922947 22.2251 0.306825 19.1214C-0.309298 16.0177 0.00691855 12.8007 1.21549 9.87706C2.42405 6.95345 4.47069 4.45459 7.09659 2.69649C9.72248 0.938383 12.8097 0 15.9678 0C20.2023 0.00167938 24.2628 1.68793 27.2569 4.68815C30.2511 7.68836 31.934 11.757 31.9357 16Z"
        fill="#EA6422" />
    <path
        d="M12.5353 25.7755L16.0641 28.9819L23.0204 23.0191C27.3206 19.0524 27.1246 14.8132 26.1823 11.9554C25.4988 9.78338 24.1349 7.88992 22.293 6.55564C20.4511 5.22137 18.2292 4.51731 15.9566 4.54783C13.4027 4.56046 10.9367 5.48369 9.00029 7.15218C7.93826 8.03955 7.06515 9.13184 6.43288 10.3641C5.8006 11.5964 5.42207 12.9435 5.31978 14.3253C5.21769 15.5839 5.37067 16.8501 5.76951 18.048C6.16835 19.2458 6.80482 20.3505 7.64065 21.2955C8.63596 22.4953 9.84011 23.5044 11.1947 24.2738L14.4009 21.6124C13.9519 21.2639 11.8713 19.6417 11.6184 19.3185C10.4867 18.0099 9.91625 16.3065 10.0311 14.5787C10.0799 13.8186 10.2802 13.076 10.6202 12.3947C10.9602 11.7134 11.4329 11.1072 12.0105 10.612C13.1297 9.64565 14.5551 9.10895 16.0325 9.09753C16.8856 9.10059 17.7284 9.28454 18.5056 9.6373C19.2827 9.99006 19.9765 10.5036 20.5414 11.1443C21.0587 11.7255 21.4527 12.4061 21.6995 13.1447C21.9462 13.8832 22.0406 14.6643 21.9769 15.4405C21.9543 16.2215 21.7662 16.9887 21.4249 17.6912C21.0836 18.3937 20.5971 19.0154 19.9975 19.515L12.5353 25.7755Z"
        fill="white" />
    <path d="M57.8087 6.11328H54.4375V25.5161H57.8087V6.11328Z" fill="#EA6422" />
    <path
        d="M132.851 11.0859C130.925 11.1176 129.091 11.9133 127.75 13.2984C126.409 14.6835 125.671 16.545 125.698 18.4745C125.67 19.4331 125.834 20.3877 126.18 21.2818C126.527 22.1758 127.049 22.9911 127.716 23.6793C128.382 24.3675 129.18 24.9146 130.062 25.2882C130.943 25.6618 131.89 25.8543 132.848 25.8543C133.805 25.8543 134.752 25.6618 135.634 25.2882C136.515 24.9146 137.313 24.3675 137.98 23.6793C138.646 22.9911 139.168 22.1758 139.515 21.2818C139.861 20.3877 140.025 19.4331 139.997 18.4745C140.024 16.5461 139.287 14.6855 137.947 13.3006C136.608 11.9157 134.775 11.1193 132.851 11.0859ZM132.851 22.4919C132.048 22.5158 131.257 22.2993 130.577 21.8698C129.898 21.4404 129.363 20.8177 129.039 20.0815C128.715 19.3452 128.618 18.5288 128.759 17.7368C128.901 16.9448 129.276 16.2133 129.835 15.6358C130.394 15.0583 131.113 14.6611 131.898 14.4951C132.684 14.3291 133.501 14.4018 134.246 14.7039C134.99 15.0061 135.627 15.5239 136.076 16.1911C136.525 16.8582 136.765 17.6445 136.765 18.4491C136.779 19.5046 136.375 20.5226 135.641 21.2802C134.907 22.0379 133.904 22.4735 132.851 22.4919Z"
        fill="#EA6422" />
    <path
        d="M77.6877 25.5508H80.9509V17.3512C80.9509 13.5492 78.5731 11.0526 74.8926 11.0526C74.0685 11.0417 73.2523 11.2146 72.5031 11.5587C71.7539 11.9029 71.0904 12.4096 70.5607 13.0423L70.4342 13.1944L70.2951 13.0423C69.7724 12.4015 69.1103 11.889 68.3594 11.5441C67.6086 11.1993 66.7889 11.0311 65.9632 11.0526C62.346 11.0526 59.8164 13.6443 59.8164 17.3512V25.5508H63.0859V17.2625C63.0661 16.8775 63.1269 16.4926 63.2642 16.1325C63.4014 15.7724 63.6123 15.4449 63.8831 15.1711C64.154 14.8973 64.4789 14.6832 64.8371 14.5425C65.1953 14.4018 65.5788 14.3376 65.9632 14.354C68.4612 14.354 68.7268 16.3881 68.7268 17.2625V25.5508H71.9962V17.2625C71.9765 16.8775 72.0372 16.4926 72.1745 16.1325C72.3118 15.7724 72.5226 15.4449 72.7935 15.1711C73.0643 14.8973 73.3893 14.6832 73.7475 14.5425C74.1056 14.4018 74.4892 14.3376 74.8736 14.354C77.4664 14.354 77.6688 16.5845 77.6688 17.2625L77.6877 25.5508Z"
        fill="#EA6422" />
    <path
        d="M82.5703 11.3945V19.5688C82.5703 23.3708 84.9481 25.8611 88.6349 25.8611C92.3217 25.8611 94.7754 23.2757 94.7754 19.5688V11.3945H91.506V19.7082C91.5209 20.092 91.4569 20.4748 91.3179 20.8327C91.1789 21.1907 90.9679 21.5162 90.698 21.789C90.4282 22.0618 90.1052 22.276 89.7492 22.4184C89.3932 22.5608 89.0117 22.6283 88.6286 22.6167C86.0358 22.6167 85.8334 20.3862 85.8334 19.7082V11.3945H82.5703Z"
        fill="#EA6422" />
    <path
        d="M105.326 25.549H108.596V17.3494C108.596 13.5474 106.212 11.0508 102.531 11.0508C98.8506 11.0508 96.3906 13.6425 96.3906 17.3494V25.549H99.6538V17.2607C99.635 16.8759 99.6964 16.4915 99.834 16.1318C99.9717 15.7721 100.183 15.445 100.453 15.1715C100.724 14.8979 101.048 14.6838 101.406 14.5427C101.764 14.4016 102.147 14.3368 102.531 14.3522C105.124 14.3522 105.326 16.5827 105.326 17.2607V25.549Z"
        fill="#EA6422" />
    <path
        d="M52.5793 25.5366V18.5663C52.6299 14.3017 49.7779 11.0003 45.3575 11.0003H45.2626C44.2918 10.9909 43.329 11.1764 42.431 11.5461C41.533 11.9157 40.718 12.4619 40.0342 13.1524C39.3504 13.8429 38.8116 14.6638 38.4496 15.5664C38.0877 16.4691 37.9099 17.4352 37.9269 18.4079C37.8826 22.4887 40.9371 25.8407 44.7061 25.8851H44.8515C45.8024 25.9 46.7504 25.7762 47.6657 25.5176V22.3493C47.2736 22.4253 46.6981 22.5394 46.4009 22.59C46.0142 22.6597 45.6234 22.7042 45.231 22.7231C44.7361 22.7264 44.2456 22.6293 43.7892 22.4376C43.3327 22.2459 42.9197 21.9637 42.5749 21.6079C41.7562 20.758 41.3022 19.6207 41.3102 18.4396C41.301 17.9111 41.3957 17.3861 41.5891 16.8943C41.7824 16.4026 42.0705 15.9539 42.437 15.5737C42.8034 15.1936 43.241 14.8895 43.7247 14.6789C44.2085 14.4682 44.7289 14.3552 45.2563 14.3461H45.3069C45.8379 14.3633 46.3603 14.4853 46.8441 14.7054C47.3279 14.9254 47.7636 15.239 48.1262 15.6281C48.4887 16.0173 48.771 16.4744 48.9567 16.9732C49.1425 17.472 49.2281 18.0026 49.2087 18.5346V25.5049L52.5793 25.5366Z"
        fill="#EA6422" />
    <path
        d="M121.192 6.07812V10.6088V15.6274V18.3649C121.211 18.8967 121.124 19.4269 120.938 19.9253C120.752 20.4237 120.47 20.8805 120.108 21.2695C119.745 21.6585 119.31 21.9721 118.826 22.1924C118.343 22.4127 117.821 22.5354 117.29 22.5534H117.246C116.715 22.5468 116.19 22.4345 115.702 22.2229C115.214 22.0113 114.773 21.7047 114.405 21.3208C114.037 20.937 113.748 20.4836 113.556 19.987C113.364 19.4904 113.273 18.9606 113.287 18.4282C113.276 17.2464 113.73 16.1079 114.552 15.2599C114.896 14.9045 115.308 14.6226 115.763 14.4309C116.218 14.2392 116.708 14.1419 117.202 14.1447C117.485 14.14 117.767 14.1698 118.043 14.2334C118.372 14.3094 119.105 14.5122 119.586 14.6516V11.3946C118.696 11.1529 117.776 11.0377 116.854 11.0524H116.702C112.908 11.0967 109.91 14.4488 109.954 18.5233C109.936 19.4942 110.112 20.4589 110.472 21.3604C110.832 22.2619 111.37 23.0817 112.052 23.7713C112.734 24.4609 113.548 25.0063 114.444 25.375C115.341 25.7438 116.302 25.9285 117.271 25.9181H117.372C118.349 25.9173 119.315 25.7186 120.212 25.3339C121.11 24.9492 121.92 24.3864 122.595 23.6796C123.27 22.9727 123.795 22.1363 124.138 21.2207C124.482 20.3052 124.637 19.3294 124.594 18.3522V6.07812H121.192Z"
        fill="#EA6422" />
</svg>
